module gitlab.com/milsosa/blobbing

go 1.17

require (
	github.com/aws/aws-sdk-go-v2/config v1.8.2
	github.com/aws/aws-sdk-go-v2/service/s3 v1.16.0
	github.com/golang/mock v1.6.0
	github.com/gorilla/mux v1.8.0
	github.com/stretchr/testify v1.7.0
)

require (
	github.com/aws/aws-sdk-go-v2 v1.9.1 // indirect
	github.com/aws/aws-sdk-go-v2/credentials v1.4.2 // indirect
	github.com/aws/aws-sdk-go-v2/feature/ec2/imds v1.5.1 // indirect
	github.com/aws/aws-sdk-go-v2/internal/ini v1.2.3 // indirect
	github.com/aws/aws-sdk-go-v2/service/internal/accept-encoding v1.3.0 // indirect
	github.com/aws/aws-sdk-go-v2/service/internal/presigned-url v1.3.1 // indirect
	github.com/aws/aws-sdk-go-v2/service/internal/s3shared v1.7.1 // indirect
	github.com/aws/aws-sdk-go-v2/service/sso v1.4.1 // indirect
	github.com/aws/aws-sdk-go-v2/service/sts v1.7.1 // indirect
	github.com/aws/smithy-go v1.8.0 // indirect
	github.com/davecgh/go-spew v1.1.0 // indirect
	github.com/pmezard/go-difflib v1.0.0 // indirect
	gopkg.in/yaml.v3 v3.0.0-20200313102051-9f266ea9e77c // indirect
)
